filesHandler/input/coppermine.csv
WC: 0.0	WT: 1.0
PreProcessingChanges:OFF	PreProcessingTime:OFF
Start	End	TotUpd	mi	ei	abs	pow	sum
0	3	11	2.75	2	0.75	0.75
				2	0.75	0.75
				4	1.25	1.25
				3	0.25	0.25	3.00
				
4	37	81	2.38	3	0.62	0.62
				8	5.62	5.62
				1	1.38	1.38
				0	2.38	2.38
				7	4.62	4.62
				2	0.38	0.38
				1	1.38	1.38
				1	1.38	1.38
				1	1.38	1.38
				3	0.62	0.62
				2	0.38	0.38
				10	7.62	7.62
				1	1.38	1.38
				0	2.38	2.38
				1	1.38	1.38
				4	1.62	1.62
				1	1.38	1.38
				0	2.38	2.38
				0	2.38	2.38
				1	1.38	1.38
				1	1.38	1.38
				2	0.38	0.38
				16	13.62	13.62
				0	2.38	2.38
				0	2.38	2.38
				0	2.38	2.38
				0	2.38	2.38
				0	2.38	2.38
				0	2.38	2.38
				3	0.62	0.62
				4	1.62	1.62
				1	1.38	1.38
				2	0.38	0.38
				5	2.62	2.62	78.35
				
38	38	1	1.00	1	0.00	0.00	0.00
				
39	42	0	0.00	0	0.00	0.00
				0	0.00	0.00
				0	0.00	0.00
				0	0.00	0.00	0.00
				
43	57	9	0.60	0	0.60	0.60
				0	0.60	0.60
				1	0.40	0.40
				0	0.60	0.60
				0	0.60	0.60
				0	0.60	0.60
				0	0.60	0.60
				1	0.40	0.40
				0	0.60	0.60
				1	0.40	0.40
				0	0.60	0.60
				1	0.40	0.40
				4	3.40	3.40
				1	0.40	0.40
				0	0.60	0.60	10.80
				
58	63	2	0.33	0	0.33	0.33
				0	0.33	0.33
				0	0.33	0.33
				0	0.33	0.33
				1	0.67	0.67
				1	0.67	0.67	2.67
				
64	67	5	1.25	4	2.75	2.75
				0	1.25	1.25
				0	1.25	1.25
				1	0.25	0.25	5.50
				
68	92	33	1.32	3	1.68	1.68
				1	0.32	0.32
				8	6.68	6.68
				0	1.32	1.32
				1	0.32	0.32
				1	0.32	0.32
				2	0.68	0.68
				1	0.32	0.32
				2	0.68	0.68
				0	1.32	1.32
				2	0.68	0.68
				0	1.32	1.32
				0	1.32	1.32
				0	1.32	1.32
				0	1.32	1.32
				1	0.32	0.32
				2	0.68	0.68
				0	1.32	1.32
				1	0.32	0.32
				3	1.68	1.68
				4	2.68	2.68
				0	1.32	1.32
				1	0.32	0.32
				0	1.32	1.32
				0	1.32	1.32	30.88
				
93	108	2	0.12	0	0.12	0.12
				0	0.12	0.12
				0	0.12	0.12
				0	0.12	0.12
				0	0.12	0.12
				1	0.88	0.88
				0	0.12	0.12
				0	0.12	0.12
				0	0.12	0.12
				0	0.12	0.12
				1	0.88	0.88
				0	0.12	0.12
				0	0.12	0.12
				0	0.12	0.12
				0	0.12	0.12
				0	0.12	0.12	3.50
				
109	112	0	0.00	0	0.00	0.00
				0	0.00	0.00
				0	0.00	0.00
				0	0.00	0.00	0.00
				
113	114	0	0.00	0	0.00	0.00
				0	0.00	0.00	0.00
				
115	116	0	0.00	0	0.00	0.00
				0	0.00	0.00	0.00
				
			134.6996066570282

